{"page":1,"total_results":79,"total_pages":4,"results":[{"vote_count":1354,"id":439079,"video":false,"vote_average":5.7,"title":"The Nun","popularity":109.532,"poster_path":"\/sFC1ElvoKGdHJIWRpNB3xWJ9lJA.jpg","original_language":"en","original_title":"The Nun","genre_ids":[27,9648,53],"backdrop_path":"\/fgsHxz21B27hOOqQBiw9L6yWcM7.jpg","adult":false,"overview":"When a young nun at a cloistered abbey in Romania takes her own life, a priest with a haunted past and a novitiate on the threshold of her final vows are sent by the Vatican to investigate. Together they uncover the order’s unholy secret. Risking not only their lives but their faith and their very souls, they confront a malevolent force in the form of the same demonic nun that first terrorized audiences in “The Conjuring 2” as the abbey becomes a horrific battleground between the living and the damned.","release_date":"2018-09-05"},{"vote_count":7,"id":545612,"video":false,"vote_average":4.1,"title":"Curse of the Nun","popularity":3.328,"poster_path":"\/Af5ZcU74CMSongWZKM2owJCzm5L.jpg","original_language":"en","original_title":"Curse of the Nun","genre_ids":[27],"backdrop_path":"\/7rDOeJ6UsR2NaQ4JNtTZEg3jw72.jpg","adult":false,"overview":"A damaged young woman is looking forward to moving to a beautiful new home, but the spirit of a deranged nun wants her to stay right where she is.","release_date":"2018-05-09"},{"vote_count":65,"id":27029,"video":false,"vote_average":7.4,"title":"The Nun's Story","popularity":4.382,"poster_path":"\/i0qzJwBnIl86yji9QmqQxFPkIBk.jpg","original_language":"en","original_title":"The Nun's Story","genre_ids":[18],"backdrop_path":"\/1Sw41hV5zNR5UQLK8tHU7w1LUA2.jpg","adult":false,"overview":"Gabrielle Van Der Mal gave up everything to become a nun. But her faith and her vows are forever being tested: first in the missionary Congo hospital where she assists the brilliant and handsome Dr. Fortunati and then at the mother house in France when World War II has broken out and the nuns are forbidden by the order to take sides.","release_date":"1959-06-18"},{"vote_count":62,"id":42968,"video":false,"vote_average":4.5,"title":"The Nun","popularity":4.359,"poster_path":"\/8feJzG1Pmp60ZzX3GXHU9pvIsu2.jpg","original_language":"es","original_title":"La monja","genre_ids":[27,9648],"backdrop_path":"\/52MUOvmsILooxlfupIYaqWENIrs.jpg","adult":false,"overview":"A group of catholic school girls are victimized by a sadistic and jealous nun, \"Sister Ursula\". The girls drown the nun in a pool of \"holy\" water. Eighteen years later circumstances arise in which the nuns spirit is released to take her revenge. She possesses the body of Eva, the daughter of one of her killers. In order for the Sister Ursula to be properly laid to rest Eva herself must be killed.","release_date":"2005-11-03"},{"vote_count":7,"id":49863,"video":false,"vote_average":5.7,"title":"The Singing Nun","popularity":1.249,"poster_path":"\/vITreT3v0ofJXchbvtlwB6AjR1Z.jpg","original_language":"en","original_title":"The Singing Nun","genre_ids":[10402,35,18,10751],"backdrop_path":"\/ayshHA8tWwCpVuMkWP2H3CD5Zbm.jpg","adult":false,"overview":"A Belgian nun, Sister Ann is sent to another order where she's at first committed to helping troubled souls like, Nichole and little Dominic. When Father Clementi hears Sister Ann's uplifting singing style, he takes her to a talent contest. Suddenly, Sister Ann is signed to a record deal and everyone is listening to her light-hearted songs. Sister Ann is unprepared for her new found fame (like appearing on the \"Ed Sullivan\" show) and unwanted side-effects, including a wrongful attraction to an old friend,","release_date":"1966-04-02"},{"vote_count":0,"id":261625,"video":false,"vote_average":0,"title":"A Nun at the Crossroads","popularity":1.341,"poster_path":"\/3DiGwPthpPMZZuMtijVYJpdYKcW.jpg","original_language":"es","original_title":"Encrucijada para una monja","genre_ids":[18],"backdrop_path":null,"adult":false,"overview":"During an uprising in the Belgian Congo, a convent of nuns are besieged and the Reverend Mother is killed and Sister Maria is raped. Returning to Belgium, Sister Maria finds out to her horror that she is pregnant. Rejected by her family and her sister, she is told by the Vatican that she is supposed to either give the baby to the church and still be a nun or keep the baby and leave the order. This film follows her decision.","release_date":"1967-12-21"},{"vote_count":56,"id":27030,"video":false,"vote_average":8.1,"title":"The Earrings of Madame de...","popularity":5.671,"poster_path":"\/o1z8wGhtPTwJ8RFYA6lXRcU4dYt.jpg","original_language":"fr","original_title":"Madame de…","genre_ids":[18,10749],"backdrop_path":"\/mkF6LluokKrfp1UT8bvfQ5HoizZ.jpg","adult":false,"overview":"In France of the late 19th century, the wife of a wealthy general, the Countess Louise, sells the earrings her husband gave her on their wedding day to pay off debts; she claims to have lost them. Her husband quickly learns of the deceit, which is the beginning of many tragic misunderstandings, all involving the earrings, the general, the countess, &amp; her new lover, the Italian Baron Donati.","release_date":"1953-09-16"},{"vote_count":2,"id":385958,"video":false,"vote_average":5,"title":"The One-armed Magic Nun","popularity":1.161,"poster_path":"\/mmqXhSwscG31lpzoPWcxK3idRfT.jpg","original_language":"cn","original_title":"獨臂神尼","genre_ids":[28],"backdrop_path":null,"adult":false,"overview":"1969 Kung-fu film featuring Suet Nei in the lead role.","release_date":"1969-11-19"},{"vote_count":1,"id":241593,"video":false,"vote_average":6,"title":"The Nun","popularity":0.6,"poster_path":"\/jXJ0qmZg66BrQMNBWRro5vzjwKH.jpg","original_language":"en","original_title":"Nunnan","genre_ids":[99],"backdrop_path":null,"adult":false,"overview":"After Marta had decided to become a nun at a young age, filmmaker Maud Nycander followed her and her family for ten years.","release_date":"2007-09-29"},{"vote_count":4,"id":72286,"video":false,"vote_average":4.3,"title":"The Story of Richard O","popularity":1.809,"poster_path":"\/1qu2OrPRUEeZq6qhItZcRUAosXI.jpg","original_language":"fr","original_title":"L'histoire de Richard O","genre_ids":[18],"backdrop_path":"\/n9Y7rOw9Ibefb6UaNEjwJahj7Rv.jpg","adult":false,"overview":"Not for the easily embarrassed, “The Story\r of Richard O.” is an explicit take on sex as a\r way to connect with other people. Richard\r feels cornered and takes some time off from\r his girlfriend in order to come to terms with\r his relationship to women and to find a better\r version of himself. During the last month of\r summer, he goes on an erotic exploration\r through the streets of Paris, where he has 13\r encounters with 13 women.","release_date":"2007-09-19"},{"vote_count":29,"id":159967,"video":false,"vote_average":6,"title":"The Nun","popularity":3.492,"poster_path":"\/xmbjIwQwzlPzzUuopWksMC2traE.jpg","original_language":"fr","original_title":"La religieuse","genre_ids":[18],"backdrop_path":"\/cTh2u46SYhS5WhfcMQZnCm4Ci9k.jpg","adult":false,"overview":"Suzanne Simonin describes her life of suffering in letters. As a young woman she is sent to a convent against her will. Since her parents cannot afford the dowry required for a marriage befitting her rank they decide she must instead become a nun. Although a kind and understanding Mother Superior helps her to learn the convent’s daily routine, Suzanne’s desire for freedom remains unabated. When the Mother Superior dies, Suzanne finds herself faced with reprisals, humiliation and harassment at the hands of the new Abbess and the other Sisters. For many years, Suzanne is subjected to bigotry and religious fanaticism. (Berlinale.de)","release_date":"2013-02-10"},{"vote_count":6,"id":69570,"video":false,"vote_average":4.4,"title":"The True Story of the Nun of Monza","popularity":1.313,"poster_path":"\/bONOlpGgn5NTZXc3Ii0XulllBST.jpg","original_language":"it","original_title":"La vera storia della monaca di Monza","genre_ids":[],"backdrop_path":"\/kFvRIOZUuTYibqU3Ht48725spzZ.jpg","adult":false,"overview":"Sister Virginia de Leyva becomes the new Mother Superior at the convent of Monza. Said convent turns out to be a veritable hotbed of sinful carnality and depravity. Debauched priest Don Arrigone and lecherous womanizer Giampaolo Osio plot to seduce sister Virginia. But will their wicked and lustful actions continue to go unnoticed?","release_date":"1980-07-03"},{"vote_count":0,"id":252968,"video":false,"vote_average":0,"title":"The Weekend Nun","popularity":0.6,"poster_path":null,"original_language":"en","original_title":"The Weekend Nun","genre_ids":[18],"backdrop_path":null,"adult":false,"overview":"True story of Jane Duco, a young nun who also had a job as a probation officer.","release_date":"1972-12-21"},{"vote_count":0,"id":281433,"video":false,"vote_average":0,"title":"The Nun and the Sergeant","popularity":0.655,"poster_path":"\/d0lNEVxWi6AAYMm8qni1vXo1f.jpg","original_language":"en","original_title":"The Nun and the Sergeant","genre_ids":[18,10752],"backdrop_path":"\/9NeHfE2ECYEbfJrMkiHjUA2FELE.jpg","adult":false,"overview":"A weary sergeant in Korea commands military prisoners on a dangerous mission and is joined by a nun and a group of schoolgirls in enemy territory.","release_date":"1962-01-01"},{"vote_count":0,"id":233334,"video":false,"vote_average":0,"title":"The Daring Nun","popularity":0.6,"poster_path":"\/qcPEHtxI18ncgOf7jWBK9x3qrj4.jpg","original_language":"ja","original_title":"尼くずれ","genre_ids":[],"backdrop_path":null,"adult":false,"overview":"One of the nuns at Senjuan is Sister Shunko (Michiyo Yasuda). Unlike the usual nun, however, she often goes out to see the world, being of the opinion that nuns should not lead cloistered lives but should see something of modern life. She makes the acquaintance of a young girl named lkuko (Kayo Mikimoto) and saves her from the advances of a gangster named Goro (lchiro Nakatani). In the meantime she turns down several propositions and, in revenge, one of her admirers denounces her to the Mother Superior (Kuniko Miyake). This lady is of liberal views, however, and refuses to do anything about it. Then Shunko is visited by Goro's gang boss who wants lkuko back and says he will blackmail Shunko unless she agrees.","release_date":"1968-10-05"},{"vote_count":0,"id":386796,"video":false,"vote_average":0,"title":"The Gambling Nun","popularity":0.6,"poster_path":"\/x79K7Ev2dLAMLklZ5lnWemHwxa0.jpg","original_language":"ja","original_title":"尼寺博徒","genre_ids":[],"backdrop_path":null,"adult":false,"overview":"A young woman, an experienced gambler, enters a nunnery to atone for some of her father's crimes. When the nunnery runs into debt, she resorts to gambling and challenges the racketeer threatening to sell the place to a game.","release_date":"1971-09-07"},{"vote_count":0,"id":324574,"video":false,"vote_average":0,"title":"The Liar and the Nun","popularity":0.629,"poster_path":"\/c1WVkJsWasUBXBNurgS3NzS7oCm.jpg","original_language":"de","original_title":"Der Lügner und die Nonne","genre_ids":[35],"backdrop_path":null,"adult":false,"overview":"","release_date":"1967-11-10"},{"vote_count":0,"id":506137,"video":false,"vote_average":0,"title":"House of the Writhing Nun","popularity":0.6,"poster_path":"\/catvgfDjEVoN7hbZBwsJTk8VzBA.jpg","original_language":"es","original_title":"House of the Writhing Nun","genre_ids":[],"backdrop_path":null,"adult":false,"overview":"","release_date":"1982-02-19"},{"vote_count":0,"id":194738,"video":false,"vote_average":0,"title":"The Nun and the Torture","popularity":0.6,"poster_path":"\/ewGrG0sffLE8GHJIImTEOfhTUrS.jpg","original_language":"en","original_title":"A Freira e a Tortura","genre_ids":[28,80,18],"backdrop_path":null,"adult":false,"overview":"Chief of Police Rui, a happily married man of principles, is in charge of investigating Joana, a teacher who's accused of political crimes. After some false starts, he manages to arrest her, but is startled to learn that she's also a nun. The revelation doesn't alter the natural course of events: he must torture her in order to obtain a confession, and gets increasingly attracted to her.","release_date":"1984-03-07"},{"vote_count":0,"id":490616,"video":false,"vote_average":0,"title":"Woman Gambler and the Nun","popularity":0.6,"poster_path":"\/hBptleV0T7RYIOT1RVyIV7Zw79y.jpg","original_language":"ja","original_title":"女賭博師尼寺開帳","genre_ids":[],"backdrop_path":null,"adult":false,"overview":"Eighth film in the long-running series Daiei Studio's Woman Gambler with Kyoko Enami starring where she plays the woman gambler Ogin.","release_date":"1968-10-30"}]}