{"page":1,"total_results":128,"total_pages":7,"results":[{"vote_count":10523,"id":10195,"video":false,"vote_average":6.7,"title":"Thor","popularity":26.626,"poster_path":"\/bIuOWTtyFPjsFDevqvF3QrD1aun.jpg","original_language":"en","original_title":"Thor","genre_ids":[12,14,28],"backdrop_path":"\/LvmmDZxkTDqp0DX7mUo621ahdX.jpg","adult":false,"overview":"Against his father Odin's will, The Mighty Thor - a powerful but arrogant warrior god - recklessly reignites an ancient war. Thor is cast down to Earth and forced to live among humans as punishment. Once here, Thor learns what it takes to be a true hero when the most dangerous villain of his world sends the darkest forces of Asgard to invade Earth.","release_date":"2011-04-21"},{"vote_count":8857,"id":284053,"video":false,"vote_average":7.5,"title":"Thor: Ragnarok","popularity":39.168,"poster_path":"\/rzRwTcFvttcN1ZpX2xv4j3tSdJu.jpg","original_language":"en","original_title":"Thor: Ragnarok","genre_ids":[28,12,35,14,878],"backdrop_path":"\/kaIfm5ryEOwYg8mLbq8HkPuM1Fo.jpg","adult":false,"overview":"Thor is on the other side of the universe and finds himself in a race against time to get back to Asgard to stop Ragnarok, the prophecy of destruction to his homeworld and the end of Asgardian civilization, at the hands of an all-powerful new threat, the ruthless Hela.","release_date":"2017-10-25"},{"vote_count":8238,"id":76338,"video":false,"vote_average":6.7,"title":"Thor: The Dark World","popularity":25.967,"poster_path":"\/bnX5PqAdQZRXSw3aX3DutDcdso5.jpg","original_language":"en","original_title":"Thor: The Dark World","genre_ids":[28,12,14],"backdrop_path":"\/3FweBee0xZoY77uO1bhUOlQorNH.jpg","adult":false,"overview":"Thor fights to restore order across the cosmos… but an ancient race led by the vengeful Malekith returns to plunge the universe back into darkness. Faced with an enemy that even Odin and Asgard cannot withstand, Thor must embark on his most perilous and personal journey yet, one that will reunite him with Jane Foster and force him to sacrifice everything to save us all.","release_date":"2013-10-29"},{"vote_count":215,"id":413279,"video":false,"vote_average":7.7,"title":"Team Thor","popularity":7.813,"poster_path":"\/aRslMOklOA76irVDpsLdKDRMUxZ.jpg","original_language":"en","original_title":"Team Thor","genre_ids":[35,14,878],"backdrop_path":"\/26X47ySirNiG3HyKjDWgjkT1Njl.jpg","adult":false,"overview":"Discover what Thor was up to during the events of Captain America: Civil War.","release_date":"2016-08-28"},{"vote_count":89,"id":441829,"video":false,"vote_average":7.3,"title":"Team Thor: Part 2","popularity":7.407,"poster_path":"\/hBByhGBRAuaDi5ZIAKrEYmPkUXT.jpg","original_language":"en","original_title":"Team Thor: Part 2","genre_ids":[878,35,14,99],"backdrop_path":"\/pgw1LdRyanwJ7sM6DWqKuPDqxVX.jpg","adult":false,"overview":"A continuation of the documentary spoof of what Thor and his roommate Darryl were up to during the events of \"Captain America: Civil War\". While Cap and Iron Man duke it out, Thor tries to pay Darryl his rent in Asgardian coins.","release_date":"2017-02-14"},{"vote_count":78,"id":101907,"video":false,"vote_average":6.2,"title":"Hulk vs. Thor","popularity":4.269,"poster_path":"\/5kDZS7ChCCXloWsNUctpS4sMal9.jpg","original_language":"en","original_title":"Hulk vs. Thor","genre_ids":[28,16,14,878],"backdrop_path":"\/iHcvBqmrE0VK67IDpki8vWgtOxH.jpg","adult":false,"overview":"For ages, Odin has protected his kingdom of Asgard. But every winter, the All-Father must rest and regain his strength for one week. During this time, all of Asgard's foes (including trolls, giants, dark elves, and demons) try to claim the realm for their own, but they are always stopped by Odin's son, the mighty Thor, albeit with the loss of many brave Asgardian warriors. Loki, god of mischief, has kidnapped Dr. Bruce Banner and brought him to Asgard with the help of Amora, once Thor's lover, now the supervillain known as the Enchantress. Loki makes Banner angry and he changes into the Hulk. The Enchantress then casts a spell over the Hulk which separates Banner from his monstrous alter-ego and grants Loki control over the Hulk's body.","release_date":"2009-01-27"},{"vote_count":25,"id":63736,"video":false,"vote_average":2.4,"title":"Almighty Thor","popularity":1.825,"poster_path":"\/gh8WcgcrIWDQeFbRawuFiRGvqvu.jpg","original_language":"en","original_title":"Almighty Thor","genre_ids":[28,12,14,878],"backdrop_path":"\/8OUV8xYpycEc6dChZDmPUx7vmx6.jpg","adult":false,"overview":"When the demon god Loki destroys the fortress of Valhalla and steals the Hammer of Invincibility, only the young hero Thor can protect Earth from armageddon.","release_date":"2011-05-07"},{"vote_count":22,"id":106631,"video":false,"vote_average":5.5,"title":"Legends of Valhalla: Thor","popularity":1.915,"poster_path":"\/9aWnlKIb6ODpkNJ6GJIjwx1u3rS.jpg","original_language":"en","original_title":"Hetjur Valhallar - Þór","genre_ids":[16,12,35,10751,14],"backdrop_path":"\/bcLk7JMhOK2wPkGl1lUbamKNSRJ.jpg","adult":false,"overview":"An over confident teen with a magical weapon and a handful of imperfect gods join forces against an evil queen and her army of giants","release_date":"2011-10-14"},{"vote_count":67,"id":63686,"video":false,"vote_average":6.3,"title":"Thor: Tales of Asgard","popularity":2.052,"poster_path":"\/jmszqWpP6JehbetACrTwo0GdGcT.jpg","original_language":"en","original_title":"Thor: Tales of Asgard","genre_ids":[12,16,28],"backdrop_path":"\/sYtby8VBJnEBG6X9dH3CVIgzQO2.jpg","adult":false,"overview":"Hungry for adventure, Thor secretly embarks on the journey of a lifetime, joined by his loyal brother Loki, whose budding sorcery equips him with just enough magic to conjure up trouble, along with the Warriors Three - a band of boastful travelers reluctant to set sail on any adventure that might actually be dangerous. But what starts out as a harmless treasure hunt quickly turns deadly, and Thor must now prove himself worthy of the destiny he covets by saving Asgard itself.","release_date":"2011-05-16"},{"vote_count":7,"id":325758,"video":false,"vote_average":6.9,"title":"I Am Thor","popularity":1.135,"poster_path":"\/7VkHEgGoGnsCQLtlH5BRykH56Fh.jpg","original_language":"en","original_title":"I Am Thor","genre_ids":[99],"backdrop_path":null,"adult":false,"overview":"John Mikl Thor was a bodybuilding, steel bending, brick smashing rock star in the 70's &amp; 80's whose band, Thor, never quite made it big. Years later he attempts a comeback that nearly kills him.","release_date":"2015-11-20"},{"vote_count":68,"id":394355,"video":true,"vote_average":6.4,"title":"Hulk Vs.","popularity":3.316,"poster_path":"\/zTpk3zBme8LEHqocGb8PkYdGjkr.jpg","original_language":"en","original_title":"Hulk Vs.","genre_ids":[878,16,28,12,14],"backdrop_path":"\/svlnTWj4DS21Xwe9ieb2Q5islNt.jpg","adult":false,"overview":"Two stories featuring Marvel's anti-hero The Incredible Hulk and his encounters with the X-Man Wolverine and the god known as Thor.","release_date":"2009-01-13"},{"vote_count":122,"id":76535,"video":false,"vote_average":7.1,"title":"Marvel One-Shot: A Funny Thing Happened on the Way to Thor's Hammer","popularity":6.271,"poster_path":"\/5uGaqAnt0RQ87uKy8UlRDNrL2jY.jpg","original_language":"en","original_title":"Marvel One-Shot: A Funny Thing Happened on the Way to Thor's Hammer","genre_ids":[878,14],"backdrop_path":"\/wdMq7F5Cr1DGg8ioNPZvWxqQer4.jpg","adult":false,"overview":"Agent Coulson stops at a convenience store and deals with a coincidental robbery during his visit.","release_date":"2011-10-25"},{"vote_count":15,"id":31533,"video":false,"vote_average":3.2,"title":"Hammer of the Gods","popularity":1.246,"poster_path":"\/jvBrRJwjQCEIH1lFEJLTBw01cOe.jpg","original_language":"en","original_title":"Hammer of the Gods","genre_ids":[10770,28,12,18,14],"backdrop_path":"\/gmCIyYZdwP9R3QuXH3bTfTjiSo6.jpg","adult":false,"overview":"Thor along with his friends travels to mysterious island seeking glory and fame. Upon arriving they encounter strange creatures and they start searching the island for answers. Meanwhile Thor keeps seeing visions for a mighty warrior and a big hammer and Freyja tells him that his visions are clues so they start searching for the hammer.","release_date":"2009-01-01"},{"vote_count":230,"id":397722,"video":false,"vote_average":6.4,"title":"Thoroughbreds","popularity":12.541,"poster_path":"\/pIxZzTfITqBpZxbIGsV01DcoHsT.jpg","original_language":"en","original_title":"Thoroughbreds","genre_ids":[18,53],"backdrop_path":"\/iKSONLvFh10sWSFBrixGLdgvh3V.jpg","adult":false,"overview":"Two teenage girls in suburban Connecticut rekindle their unlikely friendship after years of growing apart. In the process, they learn that neither is what she seems to be, and that a murder might solve both of their problems.","release_date":"2018-03-09"},{"vote_count":2,"id":151704,"video":false,"vote_average":3,"title":"Thor and the Amazon Women","popularity":0.901,"poster_path":"\/e9BvM6ZivI5lymqXUqHtPbgqSGy.jpg","original_language":"it","original_title":"Le gladiatrici","genre_ids":[12,14],"backdrop_path":null,"adult":false,"overview":"A race of Amazon warriors is enslaving the men of a country, and the mighty Thor is called upon to help them regain their freedom.","release_date":"1963-08-09"},{"vote_count":10,"id":183154,"video":false,"vote_average":3.5,"title":"Thor the Conqueror","popularity":0.64,"poster_path":"\/uDU3C5eJ5HiZAUks4rEzPo0Y3gi.jpg","original_language":"it","original_title":"Thor il conquistatore","genre_ids":[14,12],"backdrop_path":"\/fPj87uQhvNDjUog3yyvmn9Nx1Si.jpg","adult":false,"overview":"After both his parents are brutally murdered by his fathers rival Gnut and his men the new born Thor is placed in hiding by the physical embodiment of the god Teisha.  Raised in secret under the guidance of Teisha, Thor comes to maturity and goes on a quest to avenge the death of his parents and return peace to his lands, in the process he discovers a woman to take as his wife, finds and uncovers his fathers sword and masters the art of combat, all under the ever watchful eye of the amorphous Teisha.","release_date":"1983-02-05"},{"vote_count":2,"id":231120,"video":false,"vote_average":6.5,"title":"Berlin, Hallesches Thor","popularity":0.6,"poster_path":"\/5lDGYHgVaVhZIGeWr7ciIc3hUYI.jpg","original_language":"fr","original_title":"Berlin, Hallesches Thor","genre_ids":[99],"backdrop_path":null,"adult":false,"overview":"A street scene in Berlin near Hallesches Tor.","release_date":"1896-01-01"},{"vote_count":0,"id":448361,"video":true,"vote_average":0,"title":"Thor: Hammer Time","popularity":0.6,"poster_path":"\/qHTdytIatZlT4Dzgb0oZDnukf4y.jpg","original_language":"en","original_title":"Thor: Hammer Time","genre_ids":[],"backdrop_path":null,"adult":false,"overview":"Audiences are introduced to the history and powers of the difficult-to-pronounce Mjolnir hammer. The piece then examines the importance of getting the design for the movie version absolutely correct.","release_date":"2011-09-13"},{"vote_count":4,"id":448363,"video":true,"vote_average":8,"title":"Thor: Assembling the Troupe","popularity":0.6,"poster_path":"\/7tgdZEWljiTokgayEmL4SFQuAGu.jpg","original_language":"en","original_title":"Thor: Assembling the Troupe","genre_ids":[],"backdrop_path":null,"adult":false,"overview":"A short piece that looks at the casting and subsequent work of Chris Hemsworth, Natalie Portman, and Anthony Hopkins.","release_date":"2011-09-13"},{"vote_count":38,"id":80109,"video":false,"vote_average":5.8,"title":"Wickie and the Treasure of the Gods","popularity":1.955,"poster_path":"\/9M2oYCKUviddi3ULNNb6cYec8fW.jpg","original_language":"de","original_title":"Wickie auf großer Fahrt","genre_ids":[28,12,35,10751],"backdrop_path":"\/kKslUmrdi5QPW5Jta0cqD72RnUL.jpg","adult":false,"overview":"When does the little Vicky finally a real Viking? This question can his father Halvar no rest. But when the terrible Sven kidnapped the chief of Flake, has to prove himself unexpectedly Vicky: As deputy chief, he leads the strong men and it gets support from the fearless Svenja. Take course for the Cape Fear to free Halvar from Sven's castle - but the biggest problem is the Vikings still to come ... On stormy seas, tropical beaches and Valkyries by dangerous icy wastes before they fight their way to a secret location to be due to the hidden treasure of the fabled gods. The terrible Sven does everything it can to get him - and only Vicky can stop him with his clever ideas ...","release_date":"2011-09-28"}]}